…
`un_smp_split` di atas berupakan obyek R yang memiliki metadata atau
informasi baris mana dari data `un_smp` yang akan digunakan sebagai
`training` dan `testing`. Anda dapat mengakses data `training` dengan
cara menjalankan fungsi `training()` pada `un_smp_split`. Menurut Anda
fungsi apakah yang akan digunakan untuk mengakses data `testing`? Coba
buatlah baris kode untuk itu\!

**data `training`**

``` r
training(un_smp_split) 
#> # A tibble: 1,057 x 8
#>    tahun status nama_sekolah jumlah_peserta bahasa_indonesia bahasa_inggris
#>    <chr> <chr>  <chr>                 <dbl>            <dbl>          <dbl>
#>  1 2015  Negeri SMP NEGERI ~            441             86.5           82.3
#>  2 2015  Negeri SMP NEGERI ~            284             86.4           88.7
#>  3 2015  Negeri SMP NEGERI ~            291             86.2           81.4
#>  4 2015  Negeri SMP NEGERI ~            385             84.5           77.8
#>  5 2015  Negeri SMP NEGERI ~            333             89.2           91.3
#>  6 2015  Negeri SMP NEGERI ~            352             86.4           86.3
#>  7 2015  Negeri SMP NEGERI ~            317             84.3           80.4
#>  8 2015  Negeri SMP NEGERI ~            353             78.4           70.3
#>  9 2015  Negeri SMP NEGERI ~            448             81.3           74.7
#> 10 2015  Negeri SMP NEGERI ~            443             84.9           79.9
#> # ... with 1,047 more rows, and 2 more variables: matematika <dbl>,
#> #   ipa <dbl>
```

**data `testing`**

``` r
testing(un_smp_split)
#> # A tibble: 352 x 8
#>    tahun status nama_sekolah jumlah_peserta bahasa_indonesia bahasa_inggris
#>    <chr> <chr>  <chr>                 <dbl>            <dbl>          <dbl>
#>  1 2015  Negeri SMP NEGERI ~            341             77.2           64.3
#>  2 2015  Negeri SMP NEGERI ~            450             83.4           78.2
#>  3 2015  Negeri SMP NEGERI ~            282             77.7           63.4
#>  4 2015  Negeri SMP NEGERI ~            277             74.1           55.5
#>  5 2015  Negeri SMP NEGERI ~            290             84.8           84.2
#>  6 2015  Negeri SMP NEGERI ~            343             85.4           82.8
#>  7 2015  Negeri SMP NEGERI ~            342             76.6           61.9
#>  8 2015  Negeri SMP NEGERI ~            283             79.0           67.0
#>  9 2015  Negeri SMP NEGERI ~            390             78.7           69.2
#> 10 2015  Negeri SMP NEGERI ~            424             78.8           67.5
#> # ... with 342 more rows, and 2 more variables: matematika <dbl>,
#> #   ipa <dbl>
```
…
